{
   "name":"xpr_spark_2102",
   "target_environment":"DEV",
   "components":{
      "model_evaluation":{
         "build_version" : 6,
         "run_parameters":{
            "driver_memory":"512m",
            "executor_memory":"512m",
            "executor_cores":1,
            "num_executors":1,
            "run_name":"xpr_spark_2102_5a",
            "project_name":"xpr_spark_2102",
            "pipeline_name":"feature_engg_and_classifier_pipeline",
            "pipeline_version":5
         }
      }
   }
}
