{
    "experiments": [
    {
        "project_name": "xpr_spark_2102",
        "pipeline_name": "feature_engg_and_classifier_pipeline",
        "pipeline_version": 5,
        "run_name": "xpr_spark_2102_5a"
    },
    {
        "project_name": "xpr_spark_2102",
        "pipeline_version": 4,
        "pipeline_name": "feature_engg_and_classifier_pipeline",
        "run_name": "xpr_spark_2102_4a"
    }
    ]
}
